{
  "project_info": {
    "project_number": "877910317999",
    "project_id": "ecommerce-4b6b4",
    "storage_bucket": "ecommerce-4b6b4.appspot.com"
  },
  "client": [
    {
      "client_info": {
        "mobilesdk_app_id": "1:877910317999:android:d3a2e7761c7ca28a382d5a",
        "android_client_info": {
          "package_name": "com.ecommerce_mobile"
        }
      },
      "oauth_client": [
        {
          "client_id": "877910317999-460orls3921vmj0igev3sqe64ksha18s.apps.googleusercontent.com",
          "client_type": 1,
          "android_info": {
            "package_name": "com.ecommerce_mobile",
            "certificate_hash": "5e8f16062ea3cd2c4a0d547876baa6f38cabf625"
          }
        },
        {
          "client_id": "877910317999-52lc19o3vqs60k9t22i8uf91vs0kgs14.apps.googleusercontent.com",
          "client_type": 3
        }
      ],
      "api_key": [
        {
          "current_key": "AIzaSyB5DyBixLDXwDyulBEaUv-jtgAMGUqqwWg"
        }
      ],
      "services": {
        "appinvite_service": {
          "other_platform_oauth_client": [
            {
              "client_id": "877910317999-52lc19o3vqs60k9t22i8uf91vs0kgs14.apps.googleusercontent.com",
              "client_type": 3
            }
          ]
        }
      }
    }
  ],
  "configuration_version": "1"
}